// vim: sw=2
"meta": {
  "limit": 20,
  "next": "/api/v1/tenants/?limit=20&offset=20",
  "offset": 0,
  "previous": null,
  "total_count": 33
}
